digraph "acyclic" {
  graph [
    "data_size" = "3"
    "data_type" = "floating"
    "include" = "simple_functions.h"
    "iterate" = "30"
  ]

  // vertex attributes
  "Ping" [
    "function" = "regular"
    "label" = "\N|{{<pong>pong}|{<ping>ping}}"
    "shape" = "record"
  ]
  "Pong" [
    "function" = "regular"
    "label" = "\N|{{<ping>ping}|{<pong>pong}}"
    "shape" = "record"
  ]

  // edge attributes
  "Ping" -> "Pong" [
    "color" = "black:red"
    "const" = "0"
    "dir" = "both"
    "headport" = "ping:n"
    "initial" = "0"
    "label" = "ping (pong)"
    "tailport" = "ping"
  ]
}
