digraph simple {
        // parameters for the whole graph
        graph [
               // optional, default none
               include = "simple_functions.h"
               // The following may use types and values defined in
               // the include.
               //
               // optional, default double
               data_type = "floating"
               // optional, default 1
               data_size = "3"
               // optional, default 1
               //
               // May be a number or an expression. If an expression,
               // it can use `orwl_phase` and `orwl_tid` for the
               // iteration and the task-ID, respectively.
               //
               iterate = "30"
               ]
        // default parameters for nodes
        node [
              // Not necessary for taskdep, but eases drawing
              shape = "record"
              // If not stated otherwise a node will call a function
              // called regular for processing
              function = "regular"
              // If you want to set a different default startup function.
              // The default is orwl_taskdep_start which basically does nothing.
              // startup = "task_startup"
              ]
        // ************************** Node specifications ***********************
        // Adding interface order and special properties to certain
        // nodes.
        //
        // Node reg1 is a source. It has no input (the first {}) and
        // only one output, named "7".
        reg1 [ label = "reg1|{{}|{<7>7}}" ]
        // Node "out" is a sink, it has no output, and three inputs,
        // "1", "5" and "6", in that order. It uses function "special"
        // instead of "regular" and has a particular startup function
        // "task_startup"
        out [
             label = "out|{{<1>1|<5>5|<6>6}|{}}"
             function = "special"
             startup = "task_startup"
             ]
        // Node reg3 is a source. It also uses special.
        reg3 [
              label = "reg3|{{}|{<3>3|<4>4}}"
              function = "special"
             ]
        // Node reg6 is a source.
        reg6 [ label = "reg6|{{}|{<8>8}}" ]
        // Node reg7 is a source.
        reg7 [ label = "reg7|{{}|{<9>9}}" ]
        // Node reg2 is intermediate. It has two inputs and one
        // output.
        reg2 [ label = "reg2|{{<7>7|<3>3}|{<1>1}}" ]
        // Node reg4 is intermediate. It has one input and one output.
        reg4 [ label = "reg4|{{<3>3}|{<5>5}}" ]
        // Node reg5 is intermediate. It has three inputs and one
        // output.
        reg5 [ label = "reg5|{{<4>4|<8>8|<9>9}|{<6>6}}" ]
        // ************************** Dependency specifications ***********************
        // All dependencies
        //
        // Dependencies are identified with their "headport"
        // property. Together with the "label" property of the target
        // node (head) this determines the position of the dependency
        // in the order of inputs.
        //
        // The "tailport" property is analogous, but it *must* be the
        // same as the "headport" for each edge. Indicating it is
        // optional, but it may improve the drawing if there are
        // several output ports to a node.
        //
        // Dependencies that have the same source may share an
        // interface by indicating the same "headport" property.
        reg2 -> out [ headport = "1" ]
        reg1 -> reg2 [ headport = "7" ]
        // Node reg3 has two ports but three outgoing edges. For the
        // drawing it is nicer to add "tailport".
        //
        // In fact, as long as a source-target pair can be
        // determined from the port information, it can be omitted.

        // The first two dependencies use the same port.
        // reg3 -> reg2 [ headport = "3", tailport = "3" ]
        // reg3 -> reg4 [ headport = "3", tailport = "3" ]
        // reg3 -> reg5 [ headport = "4", tailport = "4"  ]

        // reg4 -> out [ headport = "5" ]
        // reg5 -> out [ headport = "6" ]
        // reg6 -> reg5 [ headport = "8" ]
        // reg7 -> reg5 [ headport = "9" ]
}
