digraph "triangle_2" {
  graph [
    "data_size" = "3"
    "data_type" = "floating"
    "include" = "simple_functions.h"
    "iterate" = "30"
  ]

  // vertex attributes
  "node_1_1" [
    "function" = "regular"
    "headports" = "out_0_1_r, out_1_2_t, out_2_1_l, out_1_0_b"
    "label" = "\N\lregular|{{<out_0_1_r>out_0_1_r|<out_1_2_t>out_1_2_t|<out_2_1_l>out_2_1_l|<out_1_0_b>out_1_0_b}|{<out_1_1_b>out_1_1_b|<out_1_1_l>out_1_1_l|<out_1_1_t>out_1_1_t|<out_1_1_r>out_1_1_r}}"
    "shape" = "record"
    "tailports" = "out_1_1_b, out_1_1_l, out_1_1_t, out_1_1_r"
  ]
  "node_2_1" [
    "function" = "regular"
    "headports" = "out_1_1_r, out_2_2_t, out_3_1_l, out_2_0_b"
    "label" = "\N\lregular|{{<out_1_1_r>out_1_1_r|<out_2_2_t>out_2_2_t|<out_3_1_l>out_3_1_l|<out_2_0_b>out_2_0_b}|{<out_2_1_b>out_2_1_b|<out_2_1_l>out_2_1_l|<out_2_1_t>out_2_1_t|<out_2_1_r>out_2_1_r}}"
    "shape" = "record"
    "tailports" = "out_2_1_b, out_2_1_l, out_2_1_t, out_2_1_r"
  ]
  "node_2_2" [
    "function" = "regular"
    "headports" = "out_1_2_r, out_2_3_t, out_3_2_l, out_2_1_b"
    "label" = "\N\lregular|{{<out_1_2_r>out_1_2_r|<out_2_3_t>out_2_3_t|<out_3_2_l>out_3_2_l|<out_2_1_b>out_2_1_b}|{<out_2_2_b>out_2_2_b|<out_2_2_l>out_2_2_l|<out_2_2_t>out_2_2_t|<out_2_2_r>out_2_2_r}}"
    "shape" = "record"
    "tailports" = "out_2_2_b, out_2_2_l, out_2_2_t, out_2_2_r"
  ]

  // edge attributes
  "node_1_1" -> "node_2_1" [
    "const" = "0"
    "headport" = "out_1_1_r:n"
    "initial" = "0"
    "label" = "out_1_1_r"
    "tailport" = "out_1_1_r:s"
  ]
  "node_2_1" -> "node_1_1" [
    "const" = "0"
    "headport" = "out_2_1_l:n"
    "init" = "{ +0 }"
    "initial" = "1"
    "label" = "out_2_1_l"
    "tailport" = "out_2_1_l:s"
  ]
  "node_2_1" -> "node_2_2" [
    "const" = "0"
    "headport" = "out_2_1_b:n"
    "initial" = "0"
    "label" = "out_2_1_b"
    "tailport" = "out_2_1_b:s"
  ]
  "node_2_2" -> "node_2_1" [
    "const" = "0"
    "headport" = "out_2_2_t:n"
    "init" = "{ +0 }"
    "initial" = "1"
    "label" = "out_2_2_t"
    "tailport" = "out_2_2_t:s"
  ]
}
